…
``` r
require(units)
require(dplyr)
require(ggplot2)
require(move2)
require(rnaturalearth)
track <- mt_read("~/Downloads/Galapagos Albatrosses.csv")
track
#> A <move2> object containing 28 tracks consisting of:
#> Simple feature collection with 16414 features and 18 fields
#> Geometry type: POINT
#> Dimension:     XY
#> Bounding box:  xmin: -91.3732 ymin: -12.79464 xmax: -77.51874 ymax: 0.1821983
#> Geodetic CRS:  WGS 84
#> # A tibble: 16,414 × 19
#>   `event-id` visible timestamp           `eobs:battery-voltage`
#> *    <int64> <lgl>   <dttm>                                [mV]
#> 1   28192544 TRUE    2008-05-31 16:29:31                   3719
#> 2   28192529 TRUE    2008-05-31 16:30:04                   3652
#> 3   28192530 TRUE    2008-05-31 18:00:29                   3713
#> 4   28192531 TRUE    2008-05-31 19:30:49                   3720
#> # ℹ 16,410 more rows
#> # ℹ 15 more variables: `eobs:fix-battery-voltage` [mV],
#> #   `eobs:horizontal-accuracy-estimate` [m], `eobs:key-bin-checksum` <int64>,
#> #   `eobs:speed-accuracy-estimate` [m/s], `eobs:start-timestamp` <dttm>,
#> #   `eobs:status` <ord>, `eobs:temperature` [°C], `eobs:type-of-fix` <fct>,
#> #   `eobs:used-time-to-get-fix` [s], `ground-speed` [m/s], heading [°],
#> #   `height-above-ellipsoid` [m], `sensor-type` <fct>, …
…
