Example analysis of albatross trajectories
…
data <- movebank_download_study("Galapagos Albatrosses", sensor_type_id = "gps")
data
#> A <move2> with `track_id_column` "individual_local_identifier" and `time_column`
#> "timestamp"
#> Containing 28 tracks lasting on average 37.1 days in a
#> Simple feature collection with 16414 features and 18 fields (with 386 geometries empty)
#> Geometry type: POINT
#> Dimension:     XY
#> Bounding box:  xmin: -91.3732 ymin: -12.79464 xmax: -77.51874 ymax: 0.1821983
#> Geodetic CRS:  WGS 84
#> # A tibble: 16,414 × 19
#>   sensor_type_id individual_local_iden…¹ eobs_battery_voltage eobs_fix_battery_vol…²
#>          <int64> <fct>                                   [mV]                   [mV]
#> 1            653 4264-84830852                           3686                   3437
#> 2            653 4264-84830852                           3701                   3452
#> 3            653 4264-84830852                           3701                   3482
#> # ℹ 16,411 more rows
#> # ℹ abbreviated names: ¹​individual_local_identifier, ²​eobs_fix_battery_voltage
#> # ℹ 15 more variables: eobs_horizontal_accuracy_estimate [m],
#> #   eobs_key_bin_checksum <int64>, eobs_speed_accuracy_estimate [m/s],
#> #   eobs_start_timestamp <dttm>, eobs_status <ord>, …
#> First 3 track features:
#> # A tibble: 28 × 52
#>   deployment_id  tag_id individual_id animal_life_stage attachment_type
#>         <int64> <int64>       <int64> <fct>             <fct>          
#> 1       2911170 2911124       2911090 adult             tape           
#> 2       2911150 2911126       2911091 adult             tape           
#> 3       2911167 2911127       2911092 adult             tape           
#> # ℹ 25 more rows
#> # ℹ 47 more variables: deployment_comments <chr>, deploy_on_timestamp <dttm>,
#> #   duty_cycle <chr>, deployment_local_identifier <fct>, manipulation_type <fct>, …
…
